{
  "content": [
    {
      "id": 1,
      "need": {
        "id": 85,
        "name": "Garam Masala Powder",
        "url": null,
        "description": null,
        "unitOfMeasurement": null
      },
      "active": false,
      "quantity": 13,
      "donations": [
        {
          "id": 70,
          "quantity": 3
        }
      ]
    },
    {
      "id": 2,
      "need": {
        "id": 53,
        "name": "Wine - Zinfandel Rosenblum",
        "url": null,
        "description":
          "habitasse platea dictumst maecenas ut massa quis augue luctus tincidunt",
        "unitOfMeasurement": null
      },
      "active": true,
      "quantity": 30,
      "donations": [
        {
          "id": 89,
          "quantity": 5
        }
      ]
    },
    {
      "id": 3,
      "need": {
        "id": 56,
        "name": "Cookies - Assorted",
        "url": null,
        "description": null,
        "unitOfMeasurement": null
      },
      "active": false,
      "quantity": 1,
      "donations": [
        {
          "id": 28,
          "quantity": 3
        }
      ]
    },
    {
      "id": 4,
      "need": {
        "id": 99,
        "name": "Pasta - Tortellini, Fresh",
        "url": null,
        "description": null,
        "unitOfMeasurement": null
      },
      "active": true,
      "quantity": 19,
      "donations": [
        {
          "id": 26,
          "quantity": 5
        },
        {
          "id": 52,
          "quantity": 4
        },
        {
          "id": 79,
          "quantity": 2
        }
      ]
    },
    {
      "id": 5,
      "need": {
        "id": 85,
        "name": "Garam Masala Powder",
        "url": null,
        "description": null,
        "unitOfMeasurement": null
      },
      "active": true,
      "quantity": 46,
      "donations": [
        {
          "id": 48,
          "quantity": 1
        }
      ]
    },
    {
      "id": 6,
      "need": {
        "id": 80,
        "name": "Wonton Wrappers",
        "url": null,
        "description":
          "ante vel ipsum praesent blandit lacinia erat vestibulum sed magna at nunc commodo placerat praesent blandit nam nulla integer pede",
        "unitOfMeasurement": null
      },
      "active": false,
      "quantity": 43,
      "donations": [
        {
          "id": 54,
          "quantity": 4
        },
        {
          "id": 59,
          "quantity": 3
        },
        {
          "id": 83,
          "quantity": 4
        },
        {
          "id": 66,
          "quantity": 5
        }
      ]
    },
    {
      "id": 7,
      "need": {
        "id": 86,
        "name": "Creme De Menth - White",
        "url": null,
        "description": null,
        "unitOfMeasurement": null
      },
      "active": false,
      "quantity": 24,
      "donations": [
        {
          "id": 95,
          "quantity": 2
        },
        {
          "id": 15,
          "quantity": 2
        },
        {
          "id": 69,
          "quantity": 3
        },
        {
          "id": 75,
          "quantity": 4
        }
      ]
    },
    {
      "id": 8,
      "need": {
        "id": 21,
        "name": "Pork Ham Prager",
        "url": null,
        "description": null,
        "unitOfMeasurement": null
      },
      "active": false,
      "quantity": 18,
      "donations": [
        {
          "id": 64,
          "quantity": 2
        },
        {
          "id": 42,
          "quantity": 2
        },
        {
          "id": 34,
          "quantity": 5
        },
        {
          "id": 57,
          "quantity": 3
        }
      ]
    },
    {
      "id": 9,
      "need": {
        "id": 72,
        "name": "Capon - Breast, Wing On",
        "url": null,
        "description": null,
        "unitOfMeasurement": null
      },
      "active": true,
      "quantity": 38,
      "donations": [
        {
          "id": 68,
          "quantity": 2
        }
      ]
    },
    {
      "id": 10,
      "need": {
        "id": 71,
        "name": "Chef Hat 25cm",
        "url": null,
        "description": null,
        "unitOfMeasurement": null
      },
      "active": false,
      "quantity": 42,
      "donations": []
    },
    {
      "id": 11,
      "need": {
        "id": 100,
        "name": "Galliano",
        "url": null,
        "description":
          "ut erat id mauris vulputate elementum nullam varius nulla facilisi cras non velit nec nisi vulputate nonummy maecenas tincidunt lacus",
        "unitOfMeasurement": null
      },
      "active": false,
      "quantity": 17,
      "donations": []
    },
    {
      "id": 12,
      "need": {
        "id": 47,
        "name": "Ecolab - Medallion",
        "url": null,
        "description":
          "blandit mi in porttitor pede justo eu massa donec dapibus",
        "unitOfMeasurement": null
      },
      "active": true,
      "quantity": 16,
      "donations": [
        {
          "id": 39,
          "quantity": 1
        },
        {
          "id": 31,
          "quantity": 1
        },
        {
          "id": 18,
          "quantity": 4
        },
        {
          "id": 86,
          "quantity": 1
        }
      ]
    },
    {
      "id": 13,
      "need": {
        "id": 52,
        "name": "Tart - Pecan Butter Squares",
        "url": null,
        "description":
          "id lobortis convallis tortor risus dapibus augue vel accumsan tellus nisi eu orci mauris lacinia sapien quis libero nullam sit",
        "unitOfMeasurement": null
      },
      "active": true,
      "quantity": 42,
      "donations": [
        {
          "id": 16,
          "quantity": 4
        },
        {
          "id": 29,
          "quantity": 4
        },
        {
          "id": 74,
          "quantity": 4
        }
      ]
    },
    {
      "id": 14,
      "need": {
        "id": 89,
        "name": "Fish - Artic Char, Cold Smoked",
        "url": null,
        "description":
          "habitasse platea dictumst morbi vestibulum velit id pretium iaculis diam erat fermentum justo",
        "unitOfMeasurement": null
      },
      "active": false,
      "quantity": 23,
      "donations": []
    },
    {
      "id": 15,
      "need": {
        "id": 93,
        "name": "Port - 74 Brights",
        "url": null,
        "description":
          "ullamcorper purus sit amet nulla quisque arcu libero rutrum ac lobortis vel dapibus",
        "unitOfMeasurement": null
      },
      "active": false,
      "quantity": 36,
      "donations": [
        {
          "id": 63,
          "quantity": 1
        },
        {
          "id": 67,
          "quantity": 3
        },
        {
          "id": 24,
          "quantity": 4
        },
        {
          "id": 87,
          "quantity": 4
        }
      ]
    },
    {
      "id": 16,
      "need": {
        "id": 72,
        "name": "Capon - Breast, Wing On",
        "url": null,
        "description": null,
        "unitOfMeasurement": null
      },
      "active": true,
      "quantity": 20,
      "donations": [
        {
          "id": 58,
          "quantity": 1
        },
        {
          "id": 77,
          "quantity": 4
        },
        {
          "id": 40,
          "quantity": 3
        }
      ]
    },
    {
      "id": 17,
      "need": {
        "id": 65,
        "name": "Vacuum Bags 12x16",
        "url": null,
        "description":
          "mattis odio donec vitae nisi nam ultrices libero non mattis pulvinar nulla pede ullamcorper augue a suscipit nulla elit ac",
        "unitOfMeasurement": null
      },
      "active": false,
      "quantity": 38,
      "donations": [
        {
          "id": 23,
          "quantity": 2
        }
      ]
    },
    {
      "id": 18,
      "need": {
        "id": 19,
        "name": "Bagel - Plain",
        "url": null,
        "description":
          "accumsan odio curabitur convallis duis consequat dui nec nisi volutpat eleifend donec ut dolor morbi",
        "unitOfMeasurement": null
      },
      "active": false,
      "quantity": 38,
      "donations": [
        {
          "id": 72,
          "quantity": 2
        }
      ]
    },
    {
      "id": 19,
      "need": {
        "id": 99,
        "name": "Pasta - Tortellini, Fresh",
        "url": null,
        "description": null,
        "unitOfMeasurement": null
      },
      "active": true,
      "quantity": 43,
      "donations": [
        {
          "id": 82,
          "quantity": 3
        },
        {
          "id": 46,
          "quantity": 3
        },
        {
          "id": 17,
          "quantity": 4
        }
      ]
    },
    {
      "id": 20,
      "need": {
        "id": 9,
        "name": "Beef - Roasted, Cooked",
        "url": null,
        "description":
          "eget tempus vel pede morbi porttitor lorem id ligula suspendisse ornare consequat lectus in est risus auctor sed tristique in",
        "unitOfMeasurement": null
      },
      "active": true,
      "quantity": 5,
      "donations": [
        {
          "id": 50,
          "quantity": 3
        },
        {
          "id": 81,
          "quantity": 4
        },
        {
          "id": 100,
          "quantity": 1
        }
      ]
    }
  ],
  "last": false,
  "totalPages": 3,
  "totalElements": 50,
  "number": 0,
  "size": 20,
  "sort": null,
  "numberOfElements": 20,
  "first": true
}
